Data Validation Rules
…
#>  6 Shee… A114  whole notBetw… 0        9        TRUE        TRUE            
#>  7 Shee… A115… whole equal    0        <NA>     TRUE        TRUE            
#>  8 Shee… A116  whole notEqual 0        <NA>     TRUE        TRUE            
#>  9 Shee… A117  whole greater… 0        <NA>     TRUE        TRUE            
#> 10 Shee… A119  whole greater… 0        <NA>     TRUE        TRUE            
#> 11 Shee… A120  whole lessTha… 0        <NA>     TRUE        TRUE            
#> 12 Shee… A118  whole lessThan 0        <NA>     TRUE        TRUE            
#> 13 Shee… A107  deci… notBetw… 0        9        FALSE       FALSE           
#> 14 Shee… A113  cust… <NA>     A113<=L… <NA>     TRUE        TRUE            
#> 15 Shee… A109  list  <NA>     $B$108   <NA>     TRUE        TRUE            
#> # … with 6 more variables: prompt_title <chr>, prompt_body <chr>,
#> #   show_error_message <lgl>, error_title <chr>, error_body <chr>,
#> #   error_symbol <chr>
cells
#> # A tibble: 93 x 21
#>    sheet address   row   col is_blank data_type error logical numeric
#>    <chr> <chr>   <int> <int> <lgl>    <chr>     <chr> <lgl>     <dbl>
#>  1 Shee… A106      106     1 FALSE    numeric   <NA>  NA          0  
#>  2 Shee… A107      107     1 FALSE    numeric   <NA>  NA          0.1
#>  3 Shee… A108      108     1 FALSE    character <NA>  NA         NA  
#>  4 Shee… A109      109     1 FALSE    character <NA>  NA         NA  
#>  5 Shee… A110      110     1 FALSE    date      <NA>  NA         NA  
#>  6 Shee… A111      111     1 FALSE    date      <NA>  NA         NA  
#>  7 Shee… A112      112     1 FALSE    character <NA>  NA         NA  
#>  8 Shee… A113      113     1 FALSE    numeric   <NA>  NA         10  
#>  9 Shee… A114      114     1 FALSE    numeric   <NA>  NA         -1  
#> 10 Shee… A115      115     1 FALSE    numeric   <NA>  NA          0  
#> # … with 83 more rows, and 12 more variables: date <dttm>, character <chr>,
#> #   character_formatted <list>, formula <chr>, is_array <lgl>,
#> #   formula_ref <chr>, formula_group <int>, comment <chr>, height <dbl>,
#> #   width <dbl>, style_format <chr>, local_format_id <int>
…
