Getting started with amt
…
## .t found, creating `track_xyt`.

tr2

## # A tibble: 1,493 x 5
##         x_      y_ t_                  id       month
##  *   <int>   <int> <dttm>              <chr>    <dbl>
##  1 3558528 5999094 2008-03-30 00:01:47 Animal 1     3
##  2 3558513 5999055 2008-03-30 06:00:54 Animal 1     3
##  3 3558564 5999146 2008-03-30 12:01:47 Animal 1     3
##  4 3558504 5999072 2008-03-30 18:01:24 Animal 1     3
##  5 3558495 5999051 2008-03-30 18:25:56 Animal 1     3
##  6 3558493 5999052 2008-03-30 18:26:05 Animal 1     3
##  7 3558489 5999051 2008-03-30 18:26:14 Animal 1     3
##  8 3558486 5999046 2008-03-30 18:26:24 Animal 1     3
##  9 3558484 5999052 2008-03-30 18:26:33 Animal 1     3
## 10 3558317 5998989 2008-03-30 18:38:01 Animal 1     3
## # … with 1,483 more rows
…
tr3 <- tr2 %>% filter(month == 5)

# we are left with a track
class(tr3)

## [1] "track_xyt"  "track_xy"   "tbl_df"     "tbl"        "data.frame"

Transforming CRS

If we set the CRS when creating a track (we can verify this with has_crs), we can transform the CRS of the coordinates with the function transform_coords (a wrapper around sp::spTransform). For illustration, we will transform the CRS of tr2 to geographical coordinates (EPSG:4326).

transform_coords(tr2, sp::CRS("+init=epsg:4326"))

## # A tibble: 1,493 x 5
##       x_    y_ t_                  id       month
##  * <dbl> <dbl> <dttm>              <chr>    <dbl>
##  1  9.89  54.1 2008-03-30 00:01:47 Animal 1     3
##  2  9.89  54.1 2008-03-30 06:00:54 Animal 1     3
##  3  9.89  54.1 2008-03-30 12:01:47 Animal 1     3
##  4  9.89  54.1 2008-03-30 18:01:24 Animal 1     3
##  5  9.89  54.1 2008-03-30 18:25:56 Animal 1     3
##  6  9.89  54.1 2008-03-30 18:26:05 Animal 1     3
##  7  9.89  54.1 2008-03-30 18:26:14 Animal 1     3
##  8  9.89  54.1 2008-03-30 18:26:24 Animal 1     3
##  9  9.89  54.1 2008-03-30 18:26:33 Animal 1     3
## 10  9.89  54.1 2008-03-30 18:38:01 Animal 1     3
## # … with 1,483 more rows
…
The function summarize_sampling_rate provides an easy way to look at the sampling rate.

summarize_sampling_rate(tr2)

## # A tibble: 1 x 9
##      min    q1 median  mean    q3   max    sd     n unit 
##    <dbl> <dbl>  <dbl> <dbl> <dbl> <dbl> <dbl> <int> <chr>
## 1 0.0025  2.00   2.01  6.34  6.00 3924.  102.  1492 hour

This suggests that a sampling rate for 6 hours might be adequate. We can then use the function track_resample to resample the track and only keep relocations that are approximately 6 hours apart (within some tolerance, that can be specified). We will use the function lubridate::hours to specify the sampling rate and lubridate::minutes to specify the tolerance. Both arguments rate and tolerance are expected to be a Period.

tr3 <- tr2 %>% track_resample(rate = hours(6), tolerance = minutes(20))
tr3

## # A tibble: 826 x 7
##         x_      y_ t_                  id       month    sl_ burst_
##  *   <int>   <int> <dttm>              <chr>    <dbl>  <dbl>  <dbl>
##  1 3558528 5999094 2008-03-30 00:01:47 Animal 1     3  41.8       1
##  2 3558513 5999055 2008-03-30 06:00:54 Animal 1     3 104.        1
##  3 3558564 5999146 2008-03-30 12:01:47 Animal 1     3  95.3       1
##  4 3558504 5999072 2008-03-30 18:01:24 Animal 1     3  22.8       1
##  5 3557474 5999130 2008-03-31 00:01:23 Animal 1     3 155.        1
##  6 3557319 5999127 2008-03-31 06:01:45 Animal 1     3   6.08      1
##  7 3557313 5999126 2008-03-31 12:01:11 Animal 1     3   4.47      1
##  8 3557317 5999128 2008-03-31 18:01:55 Animal 1     3 113.        1
##  9 3557204 5999130 2008-04-01 00:01:24 Animal 1     4 187.        1
## 10 3557108 5999291 2008-04-01 06:00:54 Animal 1     4   6.32      1
## # … with 816 more rows
…
We now want to resample each track to 30 minutes with a tolerance of 5 minutes and create steps for each animal. For the first animal we would do as follows:

# get the data for the first animal
x <- trk1$data[[1]]

# apply the data analysis
x %>% track_resample(rate = minutes(30), tolerance = minutes(5)) %>% steps_by_burst()

## # A tibble: 412 x 11
##    burst_    x1_    x2_    y1_    y2_   sl_ direction_p   ta_
##  *  <dbl>  <dbl>  <dbl>  <dbl>  <dbl> <dbl>       <dbl> <dbl>
##  1      1 1.78e6 1.78e6 2.40e6 2.40e6 10.6       NA     NA   
##  2      1 1.78e6 1.78e6 2.40e6 2.40e6  4.96      -0.427  2.51
##  3      1 1.78e6 1.78e6 2.40e6 2.40e6  2.19       2.08  -1.62
##  4      1 1.78e6 1.78e6 2.40e6 2.40e6  7.50       0.464 -2.15
##  5      1 1.78e6 1.78e6 2.40e6 2.40e6  8.01      -1.68   2.92
##  6      1 1.78e6 1.78e6 2.40e6 2.40e6 24.2        1.24  -2.78
##  7      1 1.78e6 1.78e6 2.40e6 2.40e6 38.8       -1.54  -2.76
##  8      1 1.78e6 1.78e6 2.40e6 2.40e6 13.6        1.98  -2.80
##  9      1 1.78e6 1.78e6 2.40e6 2.40e6  5.26      -0.825  2.34
## 10      1 1.78e6 1.78e6 2.40e6 2.40e6 37.2        1.52  -2.52
## # … with 402 more rows, and 3 more variables: t1_ <dttm>, t2_ <dttm>,
## #   dt_ <drtn>
…
